%YAML 1.1
%TAG !u! tag:unity3d.com,2011:
--- !u!114 &11400000
MonoBehaviour:
  m_ObjectHideFlags: 0
  m_PrefabParentObject: {fileID: 0}
  m_PrefabInternal: {fileID: 0}
  m_GameObject: {fileID: 0}
  m_Enabled: 1
  m_EditorHideFlags: 0
  m_Script: {fileID: 11500000, guid: a1e5bff8c8f1747f485f149d00c90e0d, type: 3}
  m_Name: ErrorCode
  m_EditorClassIdentifier: 
  Id:
    m_uuid: 0000f001-0000-1000-8000-00805f9b34fb
  ServiceDefinition: {fileID: 11400000, guid: 354e5b51e50c24b9e9866983435bfb5a, type: 2}
