%YAML 1.1
%TAG !u! tag:unity3d.com,2011:
--- !u!114 &11400000
MonoBehaviour:
  m_ObjectHideFlags: 0
  m_CorrespondingSourceObject: {fileID: 0}
  m_PrefabInstance: {fileID: 0}
  m_PrefabAsset: {fileID: 0}
  m_GameObject: {fileID: 0}
  m_Enabled: 1
  m_EditorHideFlags: 0
  m_Script: {fileID: 11500000, guid: 6e24a62eb5d524cd3b323c691e8e55a5, type: 3}
  m_Name: Automation Plan
  m_EditorClassIdentifier: 
  automationPlanId: 
  firstEntry: {fileID: 0}
  hideInExecutionWindow: 0
  description: 
